2
Test system to make sure that Debye Scattering = SGR. Corresponding RDF made with V = (10, 10, 10)
Pt       0.00000000       0.00000000       0.00000000
Pt       0.00000000       0.00000000       1.00000000

