39
Properties=species:S:1:pos:R:3 generated=T by=T VMD=T pbc="F F F"
Ag       0.23194321      -0.20587697       3.94939233
Pt      -0.08782466       0.07601369      -1.45382300
Pt       0.08935841      -0.07736391       1.47682308
P        1.38056885       1.95868029      -1.46585613
P        1.70068498       1.67236195       1.46831984
O        1.62576189       2.51052565       0.06220930
O        0.73061235       3.24452130      -2.13260003
O        3.14408511       1.31148318       1.72429200
O        2.74336161       1.76662120      -2.09664130
O        1.28773502       2.81612323       2.50179272
H        2.98258394       0.27818260      -2.37087285
H        3.24622757      -0.26670717       2.06305148
P        1.78668403      -1.38708209      -1.66706484
P        1.83247213      -1.68408468       1.28378420
O        2.50635949      -1.62107788      -0.20874925
O        2.98823939      -0.73850763      -2.47717774
O        1.50851435      -3.12579644       1.59285880
O        1.52937543      -2.75369188      -2.26531355
O        3.08409532      -1.25804584       2.17767274
H        0.02033373      -2.99989482      -2.36463270
H       -0.02056532      -3.22904575       2.10951253
P       -1.55903587      -1.80426885      -1.48379530
P       -1.52221181      -1.82688898       1.48227960
O       -1.62523018      -2.51236600      -0.00269723
O       -1.00204012      -3.01085362      -2.35217454
O       -2.92130834      -1.50386056       1.94872182
O       -2.98571336      -1.55516674      -1.92514538
O       -0.99409999      -3.07006025       2.33198206
H       -2.97208155       0.02994034       2.45917704
H       -3.24644933      -0.04831055      -2.01048915
P       -1.96501199       1.54163713      -1.28379078
P       -1.65415032       1.52964522       1.66612342
O       -2.50286150       1.61742601       0.26694573
O       -3.25932642       0.97392539      -2.00686360
O       -1.28617600       2.93367879       2.08144661
O       -1.77267028       2.96539832      -1.76131532
O       -2.79182526       1.00547177       2.65486552
H       -0.28541555       3.22943090      -2.01993729
H        0.29578560       2.99262544       2.41578631
